25

9 11
6
r 2 6 e
t 3 1 w
h 4 4 w
t 0 8 e
h 0 8 n
r 2 10 e
1324 112

15 9
7
r 3 3 s
r 13 5 e
t 1 4 n
r 10 7 s
f 7 4 e
f 5 1 e
h 14 2 n
721 35

14 16
5
r 7 14 w
t 5 6 w
t 6 13 s
t 6 2 w
h 3 12 e
24 112

18 4
7
h 4 2 w
h 17 0 e
h 15 0 n
r 1 3 s
r 17 3 s
t 15 1 s
t 12 3 w
1949 80

8 13
6
t 1 2 w
t 5 9 w
r 5 9 w
f 6 9 s
h 5 11 n
r 0 1 w
331 171

17 11
7
h 11 5 e
r 10 5 w
t 11 6 e
r 7 7 s
r 1 7 n
f 2 1 w
r 0 10 w
1698 81

19 4
5
r 15 3 n
r 14 2 n
r 18 3 n
f 1 1 n
t 5 2 w
588 16

5 5
7
h 3 0 e
f 3 4 w
f 4 3 s
f 2 0 w
h 4 0 w
t 1 4 n
f 2 1 s
300 119

11 17
6
r 5 0 w
f 8 12 s
r 8 12 n
t 4 9 s
t 7 9 e
f 7 5 s
742 121

1 13
7
t 0 10 e
t 0 8 w
h 0 10 s
r 0 12 s
f 0 10 s
f 0 8 s
t 0 1 n
637 117

10 19
5
h 2 4 w
r 1 7 w
f 5 3 w
r 0 1 e
r 7 18 w
215 94

12 5
7
h 9 0 e
t 9 2 w
t 4 1 s
h 5 3 s
t 7 2 e
t 0 4 n
h 4 1 e
590 131

8 10
7
h 1 3 n
t 4 6 e
t 7 2 w
r 6 8 n
f 4 0 s
t 0 7 w
h 3 4 w
182 78

6 2
6
h 1 0 e
r 5 1 n
f 3 1 n
f 1 0 s
f 2 0 e
t 1 0 n
811 164

3 6
5
t 1 0 s
f 0 1 s
f 1 2 s
r 1 0 n
h 0 5 s
186 175

5 8
7
h 2 5 n
t 3 5 n
f 0 7 n
h 4 0 s
h 0 7 e
h 4 7 w
t 3 3 n
299 111

9 1
7
t 5 0 n
f 6 0 n
t 0 0 s
f 8 0 n
r 3 0 e
r 7 0 e
h 1 0 e
1313 160

2 14
5
t 1 4 n
t 0 3 n
f 0 3 w
r 1 1 s
r 0 5 s
574 176

17 1
6
h 2 0 w
t 3 0 e
h 8 0 e
r 13 0 n
t 0 0 s
h 16 0 n
22 15

14 2
7
h 8 1 w
t 8 1 w
h 5 0 s
h 7 1 s
f 0 0 n
r 11 0 e
f 2 0 n
1282 106

9 18
7
r 2 4 e
r 6 7 n
f 7 6 s
r 3 12 s
t 5 16 n
f 1 4 s
h 2 16 s
577 53

19 4
5
f 15 1 n
t 17 2 s
h 11 1 e
r 5 1 n
h 11 1 s
1417 75

3 14
7
t 2 10 w
r 0 6 w
h 1 5 w
r 1 5 n
r 0 8 e
f 2 1 e
f 1 7 n
969 117

18 10
5
h 13 3 n
h 9 5 e
r 17 9 s
t 3 8 s
h 6 4 n
750 34

13 5
6
f 4 4 n
h 6 3 e
h 3 1 e
t 12 2 w
r 5 2 n
h 5 0 s
1337 127
