20

9 9
3
r 5 2 s
r 6 8 w
t 0 4 s
9 2

8 19
7
r 2 0 e
t 4 18 n
t 0 10 w
t 1 5 n
r 5 2 e
r 6 6 n
r 1 5 n
8 5

7 5
6
h 2 2 w
f 1 2 s
t 0 3 w
r 5 3 n
f 5 2 e
h 3 1 n
10 1

3 9
2
f 1 3 n
t 1 5 e
12 7

4 18
3
f 2 16 s
f 0 9 w
f 3 9 w
18 9

1 10
4
h 0 2 s
h 0 8 e
h 0 0 s
t 0 5 n
16 8

8 10
9
r 5 7 s
f 4 3 n
t 1 6 e
t 1 1 n
f 5 7 n
r 2 7 n
t 4 8 n
h 2 4 w
h 4 8 w
16 6

3 1
4
t 2 0 n
t 2 0 n
r 2 0 n
t 1 0 e
17 5

9 15
8
t 4 5 w
r 2 1 s
r 3 8 w
t 1 1 s
f 6 1 n
h 1 6 w
f 0 5 s
h 8 12 e
17 4

9 9
2
t 6 5 s
r 4 0 e
9 3

9 8
9
h 7 7 n
r 5 6 s
f 2 6 e
r 3 0 e
r 6 1 s
h 4 5 n
r 1 1 w
f 2 2 e
r 0 4 e
8 4

7 10
6
r 5 2 e
h 6 8 w
h 5 8 n
f 2 6 s
t 5 3 n
f 1 0 s
16 10

5 19
6
r 2 7 n
t 0 17 s
r 2 17 s
h 4 4 w
f 1 18 n
h 1 11 s
3 3

10 10
3
f 8 1 n
r 1 4 s
h 1 4 e
13 6

5 1
7
r 2 0 n
t 1 0 n
r 4 0 e
t 0 0 s
t 2 0 w
h 1 0 s
h 0 0 e
18 3

10 3
10
h 7 1 s
r 5 1 n
r 9 1 n
t 4 0 n
t 8 2 w
r 0 0 s
f 6 0 s
r 9 1 n
t 9 2 s
t 5 1 s
10 6

9 10
9
h 2 8 s
h 0 3 e
f 8 8 n
h 6 0 s
t 1 4 w
r 8 9 n
r 3 4 e
r 1 6 s
r 2 0 w
5 1

1 15
7
r 0 9 e
f 0 12 w
f 0 2 w
t 0 14 n
t 0 1 n
f 0 4 n
f 0 13 e
19 6

3 20
4
r 2 1 s
f 2 16 s
f 0 15 n
r 2 13 w
50 10

100 100
11
r 2 1 s
f 2 16 s
f 0 15 n
r 2 13 w
r 2 20 s
f 2 26 s
f 0 25 n
r 2 23 w
h 43 1 e
t 56 54 n
t 6 4 n
100 20
