25

132 37
7
t 15 18 w
h 48 16 s
t 126 29 w
h 31 2 n
t 104 27 w
h 8 1 w
h 4 9 s
1577 115

135 38
9
t 113 10 e
h 102 32 e
t 86 6 e
r 124 17 n
r 23 2 w
f 12 23 e
t 9 13 w
t 128 34 s
r 121 35 w
89 20

154 60
8
r 145 17 n
r 92 55 e
f 104 30 e
r 58 57 s
t 19 26 n
h 53 24 s
t 118 23 e
f 81 49 e
661 80

192 179
4
h 99 4 e
t 161 151 e
t 54 153 w
f 158 98 e
1326 7

30 51
7
f 4 50 w
h 3 7 w
r 18 18 e
h 6 17 w
t 14 27 n
h 2 37 e
r 23 0 w
1878 70

166 110
13
t 12 33 w
t 2 56 n
r 110 32 w
r 90 39 s
f 53 86 s
h 53 72 e
r 160 13 s
r 154 105 n
f 89 88 s
r 26 19 w
t 89 101 w
r 46 20 w
f 121 79 w
1577 14

130 94
3
t 44 54 w
t 80 2 s
t 31 7 w
109 129

26 128
10
t 9 20 n
h 21 101 e
f 23 44 n
t 22 45 n
t 17 4 s
h 9 107 s
t 13 69 w
f 1 93 s
f 17 2 s
f 14 5 s
588 196

92 141
10
t 81 2 n
r 52 31 e
t 3 56 w
f 74 116 n
r 31 22 n
h 37 10 n
h 52 12 e
t 0 90 s
f 50 80 w
h 80 20 w
697 70

113 195
4
t 75 6 n
t 54 193 e
r 95 131 w
r 22 172 w
1436 91

105 149
2
r 11 86 w
r 65 67 e
377 113

172 173
7
t 160 95 n
h 74 22 n
h 105 14 s
f 11 111 n
f 69 118 s
h 11 85 w
f 158 46 n
933 118

156 171
3
f 58 52 s
h 105 31 n
f 10 163 s
984 102

176 189
4
h 53 101 w
f 71 182 w
t 133 160 e
h 22 22 w
1812 192

68 154
7
t 52 25 n
r 17 74 w
f 10 62 w
r 10 37 s
h 21 11 e
h 58 37 s
h 6 95 w
1821 160

179 12
4
r 164 11 e
h 12 7 s
f 16 0 s
t 88 2 n
322 39

193 59
8
t 29 19 w
h 178 10 e
h 191 0 n
h 114 51 n
h 21 35 w
t 175 14 s
t 178 29 w
f 163 17 e
308 87

179 89
6
h 160 81 n
t 133 72 w
r 12 51 e
t 126 42 e
r 109 73 s
h 129 68 n
349 87

98 171
6
r 88 103 e
r 6 139 n
t 54 154 n
f 51 76 w
r 57 128 w
f 78 33 s
1875 30

160 113
6
h 113 4 w
f 142 86 s
f 98 37 w
h 33 16 w
t 157 54 s
r 142 14 n
1344 166

167 183
14
t 67 120 s
h 14 14 w
f 157 105 s
t 134 146 w
r 84 136 w
r 66 5 w
h 41 77 e
r 149 179 n
t 140 113 e
t 152 58 w
h 80 82 n
f 42 107 e
t 0 10 n
f 17 40 w
244 160

98 150
1
f 62 101 s
141 193

126 124
1
f 77 120 n
615 145

20 11
5
t 0 7 s
h 16 3 w
r 6 5 w
f 13 7 n
r 0 10 e
1657 67

70 166
15
f 61 143 s
t 13 143 n
t 60 41 e
h 60 43 s
h 56 76 s
f 30 128 e
t 25 71 e
t 14 31 s
r 13 104 e
f 16 121 w
r 56 140 e
h 15 86 s
f 14 105 s
t 54 114 w
f 15 153 n
1162 58
