25

102 72
5
r 23 49 s
h 89 30 n
h 39 1 s
r 0 69 n
f 33 48 s
1731 77

56 162
7
h 48 136 n
h 15 9 s
r 49 27 w
r 45 115 n
r 53 100 n
h 27 91 n
r 23 2 s
979 130

97 188
6
r 74 105 n
f 88 95 w
r 62 53 w
h 84 137 s
t 41 14 w
t 27 79 s
1597 120

73 87
7
f 64 28 n
r 0 86 n
t 7 19 n
t 67 5 s
r 35 60 e
r 41 22 s
r 35 33 n
1085 140

199 4
7
r 64 1 s
f 5 3 e
f 160 2 s
h 119 3 e
t 60 2 n
r 74 2 s
r 54 2 n
1083 192

163 188
5
t 123 10 w
r 44 20 s
r 22 147 e
h 86 176 s
r 53 110 w
811 112

79 8
5
r 16 5 w
h 43 5 n
t 30 0 n
t 44 2 w
t 1 4 w
1416 2

141 84
7
t 137 31 w
h 47 4 s
r 78 49 w
r 119 0 w
h 73 7 e
h 85 67 e
t 90 74 n
216 194

147 119
7
h 13 17 s
r 37 90 s
r 95 10 n
f 107 66 n
t 132 82 e
r 55 108 n
f 64 107 n
1696 162

131 15
5
t 5 1 s
f 118 0 w
t 10 0 e
r 68 14 w
f 117 10 s
1501 122

49 141
6
t 14 46 s
h 30 125 n
r 34 33 w
t 22 90 s
r 14 54 s
r 46 29 n
260 125

158 1
7
f 143 0 w
h 78 0 n
t 109 0 n
r 121 0 w
f 3 0 e
f 36 0 w
h 18 0 e
489 19

98 167
5
r 13 110 s
r 31 65 n
h 80 139 w
h 52 7 e
f 85 164 s
205 95

72 123
6
f 18 0 w
h 62 23 e
h 2 65 e
r 65 96 e
r 0 25 e
t 69 56 n
809 29

79 153
6
t 19 32 n
h 50 106 w
h 42 31 e
h 24 38 n
t 46 100 n
t 5 64 s
208 51

68 183
6
f 20 112 e
h 36 175 w
f 45 173 s
t 63 172 n
f 16 126 s
f 62 18 e
18 120

60 171
6
h 28 58 w
r 12 117 n
r 18 25 e
f 23 116 e
t 32 86 s
t 40 3 n
282 156

177 66
6
t 111 30 s
f 158 40 n
t 31 0 w
r 44 65 e
f 118 17 e
f 63 38 e
109 106

40 185
7
r 30 102 e
h 29 163 n
t 15 71 s
t 17 39 e
t 7 153 n
r 1 163 w
r 1 106 e
519 106

81 105
7
r 74 46 e
h 27 74 n
t 42 55 n
r 16 68 e
f 72 98 s
r 18 82 n
h 76 83 w
936 47

4 146
6
t 3 66 w
r 3 28 w
f 2 141 e
f 0 134 w
f 1 13 n
h 1 45 w
953 193

124 12
5
t 117 8 s
t 29 0 e
r 51 5 w
f 30 0 w
f 9 8 w
523 106

35 152
6
t 23 78 s
r 5 41 e
t 31 148 e
r 9 89 n
t 12 129 s
f 12 10 s
1804 123

7 120
7
f 2 28 e
f 0 12 e
r 5 20 n
t 2 98 e
f 4 74 n
h 0 29 e
r 3 63 e
721 191

97 46
6
h 78 45 e
f 18 11 n
h 40 33 w
r 7 13 e
r 12 27 n
f 56 8 w
332 162
